A3 - Veg vs Non-Veg in Tips – Data-as-Material-Class
…
Multiple parameters; naming those columns num.df, den.df

# A tibble: 1 × 9
  estimate num.df den.df statistic p.value conf.low conf.high method alternative
     <dbl>  <int>  <int>     <dbl>   <dbl>    <dbl>     <dbl> <chr>  <chr>      
1    0.346     29     29     0.346 0.00554    0.165     0.726 F tes… two.sided  

.

## checking which group comes first
tips %>% 
  mutate( Preference = as_factor(Preference))

# A tibble: 60 × 4
   Name     Gender Preference   Tip
   <chr>    <chr>  <fct>      <dbl>
 1 Aanya    Female Veg            0
 2 Adit     Male   Veg            0
 3 Aditi    Female Veg           20
 4 Akash    Male   Non-veg        0
 5 Akshita  Female Non-veg        0
 6 Anandita Female Non-veg        0
 7 Ananya   Female Non-veg       20
 8 Anaya    Female Veg           35
 9 Anhuya   Female Veg           40
10 Ankit    Male   Non-veg        0
# ℹ 50 more rows
…
