Day 6: Stats Theory – Data-as-Material-Class
…
Inference for a Single Mean

.

Case Study 1 - Toy Data

set.seed(40)  # for replication
# Data as individual vectors ( for t.tests etc)
y <- rnorm(50, mean = 2, sd = 2)

# And as tibble too
mydata <- tibble(y = y)
mydata

# A tibble: 50 × 1
        y
    <dbl>
 1  2.96 
 2  2.99 
 3  0.281
 4  0.342
 5  1.36 
 6 -0.608
 7 -0.843
 8  5.49 
 9  1.42 
10 -0.618
# ℹ 40 more rows
…
