Day 4: Quantities – Data-as-Material-Class
…
the y-axis changes when you change the bins as more the number of class groups, less the number of units within that group > count scale changes

if the number of bins = the number of rows, it would result in a line graph with the area shaded

alpha = opacity, valuable for overlapping values

gf_facet_wrap = splits the levels of a variable into their respective graphs

nrow = changes the scale on the y axis

free_y = changes the scales on each graph on gf_facet_wrap

diamonds

# A tibble: 53,940 × 10
   carat cut       color clarity depth table price     x     y     z
   <dbl> <ord>     <ord> <ord>   <dbl> <dbl> <int> <dbl> <dbl> <dbl>
 1  0.23 Ideal     E     SI2      61.5    55   326  3.95  3.98  2.43
 2  0.21 Premium   E     SI1      59.8    61   326  3.89  3.84  2.31
 3  0.23 Good      E     VS1      56.9    65   327  4.05  4.07  2.31
 4  0.29 Premium   I     VS2      62.4    58   334  4.2   4.23  2.63
 5  0.31 Good      J     SI2      63.3    58   335  4.34  4.35  2.75
 6  0.24 Very Good J     VVS2     62.8    57   336  3.94  3.96  2.48
 7  0.24 Very Good I     VVS1     62.3    57   336  3.95  3.98  2.47
 8  0.26 Very Good H     SI1      61.9    55   337  4.07  4.11  2.53
 9  0.22 Fair      E     VS2      65.1    61   337  3.87  3.78  2.49
10  0.23 Very Good H     VS1      59.4    61   338  4     4.05  2.39
# ℹ 53,930 more rows
…
rank_df <- read_csv("https://raw.githubusercontent.com/rfordatascience/tidytuesday/master/data/2021/2021-10-26/ultra_rankings.csv")

Rows: 137803 Columns: 8
── Column specification ────────────────────────────────────────────────────────
Delimiter: ","
chr (4): runner, time, gender, nationality
dbl (4): race_year_id, rank, age, time_in_seconds

ℹ Use `spec()` to retrieve the full column specification for this data.
ℹ Specify the column types or set `show_col_types = FALSE` to quiet this message.

race_df

# A tibble: 1,207 × 13
   race_year_id event    race  city  country date       start_time participation
          <dbl> <chr>    <chr> <chr> <chr>   <date>     <time>     <chr>        
 1        68140 Peak Di… Mill… Cast… United… 2021-09-03 19:00      solo         
 2        72496 UTMB®    UTMB® Cham… France  2021-08-27 17:00      Solo         
 3        69855 Grand R… Ultr… viel… France  2021-08-20 05:00      solo         
 4        67856 Persenk… PERS… Asen… Bulgar… 2021-08-20 18:00      solo         
 5        70469 Runfire… 100 … uluk… Turkey  2021-08-20 18:00      solo         
 6        66887 Swiss A… 160KM Müns… Switze… 2021-08-15 17:00      solo         
 7        67851 Salomon… Salo… Foll… Norway  2021-08-14 07:00      solo         
 8        68241 Ultra T… 160KM Spa   Belgium 2021-08-14 07:00      solo         
 9        70241 Québec … QMT-… Beau… Canada  2021-08-13 22:00      solo         
10        69945 Bunketo… BBUT… LIND… Sweden  2021-08-07 10:00      solo         
# ℹ 1,197 more rows
# ℹ 5 more variables: distance <dbl>, elevation_gain <dbl>,
#   elevation_loss <dbl>, aid_stations <dbl>, participants <dbl>
…
