Day 7: Comparing Multiple Means with ANOVA – Data-as-Material-Class
…
## Calling Data
frogs_orig <- read_delim(file ="../../Data/frogs.csv", delim = ",")

Rows: 60 Columns: 4
── Column specification ────────────────────────────────────────────────────────
Delimiter: ","
dbl (4): Frogspawn sample id, Temperature13, Temperature18, Temperature25

ℹ Use `spec()` to retrieve the full column specification for this data.
ℹ Specify the column types or set `show_col_types = FALSE` to quiet this message.

frogs_orig

# A tibble: 60 × 4
   `Frogspawn sample id` Temperature13 Temperature18 Temperature25
                   <dbl>         <dbl>         <dbl>         <dbl>
 1                     1            24            NA            NA
 2                     2            NA            21            NA
 3                     3            NA            NA            18
 4                     4            26            NA            NA
 5                     5            NA            22            NA
 6                     6            NA            NA            14
 7                     7            27            NA            NA
 8                     8            NA            22            NA
 9                     9            NA            NA            15
10                    10            27            NA            NA
# ℹ 50 more rows
…
frogs_long

# A tibble: 60 × 3
      Id TempFac  Time
   <dbl> <fct>   <dbl>
 1     1 13         24
 2     2 18         21
 3     3 25         18
 4     4 13         26
 5     5 18         22
 6     6 25         14
 7     7 13         27
 8     8 18         22
 9     9 25         15
10    10 13         27
# ℹ 50 more rows
…
