A3 - B.FA vs B.Des vs B.Voc – Data-as-Material-Class
…
  ) )
grades_mod

# A tibble: 90 × 8
      SN Degree Course  Year `Letter Grade` Score Gender scores_rounded
   <dbl> <chr>  <chr>  <dbl> <chr>          <dbl> <chr>           <dbl>
 1     1 B.Des  CAC        2 A                8   F                   8
 2     2 B.Des  CAC        2 O                9.6 F                  10
 3     3 B.Des  IADP       2 A+               9.2 F                   9
 4     4 B.Des  CE         2 O                9.8 F                  10
 5     5 B.Des  BSSD       2 P                3   M                   3
 6     6 B.Des  CAC        2 O                9.5 F                  10
 7     7 B.Des  PSD        2 A+               9   F                   9
 8     8 B.Des  PSD        2 A+               9   F                   9
 9     9 B.Des  PSD        2 A+               9   F                   9
10    10 B.Des  BSSD       3 A+               9   F                   9
# ℹ 80 more rows
…
.

null_dist_infer <- grades_mod %>%
  specify(scores_rounded ~ Degree) %>%
  hypothesise(null = "independence") %>%
  generate(reps = 4999, type = "permute") %>%
  calculate(stat = "F")
##
null_dist_infer

Response: scores_rounded (numeric)
Explanatory: Degree (factor)
Null Hypothesis: independence
# A tibble: 4,999 × 2
   replicate  stat
       <int> <dbl>
 1         1 0.174
 2         2 1.23 
 3         3 0.641
 4         4 1.94 
 5         5 0.534
 6         6 0.258
 7         7 1.16 
 8         8 1.25 
 9         9 1.74 
10        10 2.99 
# ℹ 4,989 more rows
…
