Day 2: Summarizing Data – Data-as-Material-Class
…
Attaching package: 'kableExtra'

The following object is masked from 'package:dplyr':

    group_rows

library(babynames)

Looking at the ‘mpg’ Data Set:

mpg

# A tibble: 234 × 11
   manufacturer model      displ  year   cyl trans drv     cty   hwy fl    class
   <chr>        <chr>      <dbl> <int> <int> <chr> <chr> <int> <int> <chr> <chr>
 1 audi         a4           1.8  1999     4 auto… f        18    29 p     comp…
 2 audi         a4           1.8  1999     4 manu… f        21    29 p     comp…
 3 audi         a4           2    2008     4 manu… f        20    31 p     comp…
 4 audi         a4           2    2008     4 auto… f        21    30 p     comp…
 5 audi         a4           2.8  1999     6 auto… f        16    26 p     comp…
 6 audi         a4           2.8  1999     6 manu… f        18    26 p     comp…
 7 audi         a4           3.1  2008     6 auto… f        18    27 p     comp…
 8 audi         a4 quattro   1.8  1999     4 manu… 4        18    26 p     comp…
 9 audi         a4 quattro   1.8  1999     4 auto… 4        16    25 p     comp…
10 audi         a4 quattro   2    2008     4 manu… 4        20    28 p     comp…
# ℹ 224 more rows
…
star_trek_data <- read_delim(file = "../../Data/star_trek_books.csv", delim = ";")

Rows: 783 Columns: 11
── Column specification ────────────────────────────────────────────────────────
Delimiter: ";"
chr  (7): title, author, publisher, identifier, series, subseries, dedication
dbl  (3): nchap, nword, nchar
date (1): date

ℹ Use `spec()` to retrieve the full column specification for this data.
ℹ Specify the column types or set `show_col_types = FALSE` to quiet this message.

star_trek_data

# A tibble: 783 × 11
   title    author date       publisher identifier series subseries nchap  nword
   <chr>    <chr>  <date>     <chr>     <chr>      <chr>  <chr>     <dbl>  <dbl>
 1 Star Tr… Alan … 2009-05-12 Simon an… 1439163391 AV     <NA>         18  77035
 2 Starfle… Rick … 2010-11-02 Simon Sp… 978144241… AV     Starflee…    14  40129
 3 Starfle… Rudy … 2010-12-28 Simon Sp… 978144241… AV     Starflee…    31  52547
 4 Starfle… Rick … 2011-06-28 Simon Sp… 978144241… AV     Starflee…    13  39495
 5 Starfle… Alan … 2012-06-26 Simon Sp… 978144242… AV     Starflee…    30  62030
 6 Star Tr… Alan … 2013-05-21 Gallery … 978147671… AV     <NA>         17  77438
 7 Captain… James… 1998-06-01 Pocket B… 978143910… CT     <NA>         21  95110
 8 Captain… Macke… 1998-10-01 Pocket B… 978074345… CT     <NA>         26  76392
 9 Captain… Chris… 1998-10-01 Pocket B… 978143910… CT     <NA>         34  78678
10 The Cap… John … 2000-03-01 Pocket B… 978074340… CT     <NA>        176 436682
# ℹ 773 more rows
# ℹ 2 more variables: nchar <dbl>, dedication <chr>
…
star_trek_data %>%
  group_by(publisher) %>%
  summarize(avg_nchap = mean(nchap), avg_nw = mean(nword), avg_nchar = mean(nchar), count = n())

# A tibble: 22 × 5
   publisher           avg_nchap  avg_nw avg_nchar count
   <chr>                   <dbl>   <dbl>     <dbl> <int>
 1 Abrams Publications     373   132041    898671      1
 2 Aladdin                  11.2  23801.   139129.    28
 3 Aladdin Paperbacks       24    69076    390799      1
 4 Amereon Ltd              NA    40804.   233809      2
 5 Bantam Books             NA    50225.   287111.    20
 6 Demco Media               6.5  23310.   134614      2
 7 Dk Publishing             1   119459   1094928      1
 8 Elysium                  21    98779    578010      1
 9 Gallery Books            34.1  93418.   613745.    15
10 Harlequin                27    63453    372682      1
# ℹ 12 more rows
…
